{
	"info": {
		"_postman_id": "cbf161be-5f11-41a0-ac7f-ce9622dab14f",
		"name": "Users-CRUD",
		"schema": "https://schema.getpostman.com/json/collection/v2.1.0/collection.json"
	},
	"item": [
		{
			"name": "USER_POST_Create",
			"request": {
				"method": "POST",
				"header": [
					{
						"key": "Content-Type",
						"value": "application/json",
						"type": "text"
					}
				],
				"body": {
					"mode": "raw",
					"raw": "{\r\n   \"username\": \"juan\",\r\n   \"password\": \"1234563\",\r\n   \"email\": \"ahuan2a@gmail.com\"\r\n}",
					"options": {
						"raw": {
							"language": "json"
						}
					}
				},
				"url": {
					"raw": "http://localhost:5000/users",
					"protocol": "http",
					"host": [
						"localhost"
					],
					"port": "5000",
					"path": [
						"users"
					]
				},
				"description": "Creacion de USuario en Mongo"
			},
			"response": []
		},
		{
			"name": "USER_GET_READ_LISTALL",
			"request": {
				"method": "GET",
				"header": [
					{
						"key": "Content-Type",
						"value": "application/json",
						"type": "text"
					}
				],
				"url": {
					"raw": "http://localhost:5000/users",
					"protocol": "http",
					"host": [
						"localhost"
					],
					"port": "5000",
					"path": [
						"users"
					]
				},
				"description": "Creacion de USuario en Mongo"
			},
			"response": []
		},
		{
			"name": "USER_GET_READ_LISTONE",
			"request": {
				"method": "GET",
				"header": [
					{
						"key": "Content-Type",
						"type": "text",
						"value": "application/json"
					}
				],
				"url": {
					"raw": "http://localhost:5000/users/5e98ca39d9cfacf06fd986d0",
					"protocol": "http",
					"host": [
						"localhost"
					],
					"port": "5000",
					"path": [
						"users",
						"5e98ca39d9cfacf06fd986d0"
					]
				},
				"description": "Creacion de USuario en Mongo"
			},
			"response": []
		},
		{
			"name": "USER_GET_DELETE_USER",
			"request": {
				"method": "DELETE",
				"header": [
					{
						"key": "Content-Type",
						"type": "text",
						"value": "application/json"
					}
				],
				"url": {
					"raw": "http://localhost:5000/users/",
					"protocol": "http",
					"host": [
						"localhost"
					],
					"port": "5000",
					"path": [
						"users",
						""
					]
				},
				"description": "Creacion de USuario en Mongo"
			},
			"response": []
		},
		{
			"name": "USER_GET_UPDATE_USER",
			"request": {
				"method": "PUT",
				"header": [
					{
						"key": "Content-Type",
						"type": "text",
						"value": "application/json"
					}
				],
				"body": {
					"mode": "raw",
					"raw": "{\r\n   \"username\": \"juancito Morales\",\r\n   \"password\": \"123456334\",\r\n   \"email\": \"ahuan222a@gmail.com\"\r\n}",
					"options": {
						"raw": {
							"language": "json"
						}
					}
				},
				"url": {
					"raw": "http://localhost:5000/users/5ea70def1153d71b22164cbf",
					"protocol": "http",
					"host": [
						"localhost"
					],
					"port": "5000",
					"path": [
						"users",
						"5ea70def1153d71b22164cbf"
					]
				},
				"description": "Creacion de USuario en Mongo"
			},
			"response": []
		}
	],
	"protocolProfileBehavior": {}
}